<?xml version="1.0" encoding="utf-8"?>
<!-- Generator: Adobe Illustrator 22.0.0, SVG Export Plug-In . SVG Version: 6.00 Build 0)  -->
<svg version="1.1" id="Capa_1" xmlns="http://www.w3.org/2000/svg" xmlns:xlink="http://www.w3.org/1999/xlink" x="0px" y="0px"
	 viewBox="0 0 100 100" style="enable-background:new 0 0 100 100;" xml:space="preserve">
<style type="text/css">
	.st0{fill:#676766;}
</style>
<path class="st0" d="M83.4,29.1h-4.5v-1.5c0-0.7-0.5-1.3-1.2-1.5l-1.1-0.2c-2.8-0.6-5.7-0.9-8.6-1c-5.3,0-12.7,1.2-18.1,6.7
	C44.5,26.2,37.1,25,31.8,25c-2.9,0-5.8,0.3-8.6,1l-1,0.2C21.5,26.4,21,27,21,27.7v1.4h-4.4c-0.8,0-1.5,0.7-1.5,1.5v42.9
	c0,0.5,0.3,1,0.7,1.3c0.4,0.3,1,0.3,1.4,0.1l1.9-0.8c5.6-2.3,11.6-3.5,17.7-3.4c1.9,0,7.6,0.1,9.5,0.3c0.4,0,0.8-0.1,1.2-0.4
	l1.8,1.2c0.5,0.3,1.1,0.3,1.5,0.1c0.1-0.1,0.2-0.2,0.3-0.2l1.7-1.1c0.3,0.4,0.8,0.6,1.4,0.6c1.8-0.2,7.2-0.4,9.1-0.4
	c0.1,0,0.1,0,0.2,0c6.1,0,12,1.2,17.5,3.4l1.9,0.8C83,75,83.2,75,83.4,75c0.3,0,0.6-0.1,0.8-0.3c0.4-0.3,0.7-0.7,0.7-1.3V30.6
	C84.9,29.8,84.2,29.1,83.4,29.1z M68.1,28c2.6,0,5.3,0.3,7.8,0.9V64c-2.4-0.3-4.7-0.4-7.1-0.4c-8.7,0-14.2,2.2-17.3,4.1l0-33.2
	C56.2,29.1,63.1,28,68.1,28z M68.8,66.5c1,0,2,0,3.2,0.1l0.4,0c1.2,0.1,2.2,0.2,3.3,0.3l1,0.1c0.2,0,0.3,0,0.5,0.1
	c0.4,0.1,0.9-0.1,1.2-0.3c0.3-0.3,0.5-0.7,0.5-1.1V32.1h2.9v39.1c-5.8-2.4-12-3.6-18.4-3.6c-0.1,0-0.2,0-0.4,0c-0.9,0-2.5,0-4.2,0.1
	C61.9,66.9,65.2,66.5,68.8,66.5z M43.5,65.7l0-0.3c-0.9-0.3-1.9-0.6-2.9-0.8l-0.3-0.1c-0.2,0-0.4-0.1-0.6-0.1
	c-2.8-0.6-5.7-0.9-8.5-0.8c-2.4,0-4.8,0.2-7.2,0.5V28.9c2.6-0.6,5.2-0.8,7.8-0.9c4.9,0,11.8,1.1,16.6,6.5v33.2
	c-1.4-0.9-3-1.7-4.8-2.3l-0.1,0L43.5,65.7C43.5,65.7,43.5,65.7,43.5,65.7z M21.5,66.9c0.3,0.3,0.8,0.4,1.2,0.4l1.5-0.2
	c2.3-0.3,4.6-0.5,7-0.5c2.8,0,5.4,0.2,7.8,0.7l0.2,0c0.2,0,0.3,0.1,0.5,0.1c0.3,0.1,0.7,0.2,1,0.2c-1.7,0-3.2-0.1-3.9-0.1
	c-0.1,0-0.1,0-0.2,0c-6.4,0-12.6,1.2-18.5,3.6V32.1H21v33.6C21,66.2,21.2,66.6,21.5,66.9z"/>
</svg>
